Aula2/simulation/qsim/atividade1.msim.vcd
$comment
	File created using the following command:
		vcd file atividade1.msim.vcd -direction
$end
$date
	Tue Sep 01 13:19:54 2020
$end
$version
	ModelSim Version 2020.1
$end
$timescale
	1ps
$end

$scope module atividade1_vhd_vec_tst $end
$var wire 1 ! CLOCK_50 $end
$var wire 1 " FPGA_RESET_N $end
$var wire 1 # KEY [3] $end
$var wire 1 $ KEY [2] $end
$var wire 1 % KEY [1] $end
$var wire 1 & KEY [0] $end
$var wire 1 ' LEDR [9] $end
$var wire 1 ( LEDR [8] $end
$var wire 1 ) LEDR [7] $end
$var wire 1 * LEDR [6] $end
$var wire 1 + LEDR [5] $end
$var wire 1 , LEDR [4] $end
$var wire 1 - LEDR [3] $end
$var wire 1 . LEDR [2] $end
$var wire 1 / LEDR [1] $end
$var wire 1 0 LEDR [0] $end
$var wire 1 1 SW [9] $end
$var wire 1 2 SW [8] $end
$var wire 1 3 SW [7] $end
$var wire 1 4 SW [6] $end
$var wire 1 5 SW [5] $end
$var wire 1 6 SW [4] $end
$var wire 1 7 SW [3] $end
$var wire 1 8 SW [2] $end
$var wire 1 9 SW [1] $end
$var wire 1 : SW [0] $end

$scope module i1 $end
$var wire 1 ; gnd $end
$var wire 1 < vcc $end
$var wire 1 = unknown $end
$var wire 1 > devoe $end
$var wire 1 ? devclrn $end
$var wire 1 @ devpor $end
$var wire 1 A ww_devoe $end
$var wire 1 B ww_devclrn $end
$var wire 1 C ww_devpor $end
$var wire 1 D ww_SW [9] $end
$var wire 1 E ww_SW [8] $end
$var wire 1 F ww_SW [7] $end
$var wire 1 G ww_SW [6] $end
$var wire 1 H ww_SW [5] $end
$var wire 1 I ww_SW [4] $end
$var wire 1 J ww_SW [3] $end
$var wire 1 K ww_SW [2] $end
$var wire 1 L ww_SW [1] $end
$var wire 1 M ww_SW [0] $end
$var wire 1 N ww_KEY [3] $end
$var wire 1 O ww_KEY [2] $end
$var wire 1 P ww_KEY [1] $end
$var wire 1 Q ww_KEY [0] $end
$var wire 1 R ww_LEDR [9] $end
$var wire 1 S ww_LEDR [8] $end
$var wire 1 T ww_LEDR [7] $end
$var wire 1 U ww_LEDR [6] $end
$var wire 1 V ww_LEDR [5] $end
$var wire 1 W ww_LEDR [4] $end
$var wire 1 X ww_LEDR [3] $end
$var wire 1 Y ww_LEDR [2] $end
$var wire 1 Z ww_LEDR [1] $end
$var wire 1 [ ww_LEDR [0] $end
$var wire 1 \ ww_CLOCK_50 $end
$var wire 1 ] ww_FPGA_RESET_N $end
$var wire 1 ^ \~QUARTUS_CREATED_GND~I_combout\ $end
$var wire 1 _ \FPGA_RESET_N~input_o\ $end
$var wire 1 ` \CLOCK_50~input_o\ $end
$var wire 1 a \CLOCK_50~inputCLKENA0_outclk\ $end
$var wire 1 b \detectorCLOCK|saidaQ~feeder_combout\ $end
$var wire 1 c \detectorCLOCK|saidaQ~q\ $end
$var wire 1 d \detectorCLOCK|saida~combout\ $end
$var wire 1 e \SW[0]~input_o\ $end
$var wire 1 f \KEY[0]~input_o\ $end
$var wire 1 g \detectorRSTB|saidaQ~0_combout\ $end
$var wire 1 h \detectorRSTB|saidaQ~q\ $end
$var wire 1 i \detectorRSTB|saida~combout\ $end
$var wire 1 j \KEY[2]~input_o\ $end
$var wire 1 k \SW[9]~input_o\ $end
$var wire 1 l \KEY[1]~input_o\ $end
$var wire 1 m \detectorRSTA|saidaQ~0_combout\ $end
$var wire 1 n \detectorRSTA|saidaQ~q\ $end
$var wire 1 o \detectorRSTA|saida~combout\ $end
$var wire 1 p \KEY[3]~input_o\ $end
$var wire 1 q \ULA|Add0~34_cout\ $end
$var wire 1 r \ULA|Add0~1_sumout\ $end
$var wire 1 s \SW[1]~input_o\ $end
$var wire 1 t \regB|DOUT[1]~feeder_combout\ $end
$var wire 1 u \ULA|Add0~2\ $end
$var wire 1 v \ULA|Add0~5_sumout\ $end
$var wire 1 w \SW[2]~input_o\ $end
$var wire 1 x \ULA|Add0~6\ $end
$var wire 1 y \ULA|Add0~9_sumout\ $end
$var wire 1 z \SW[3]~input_o\ $end
$var wire 1 { \regB|DOUT[3]~feeder_combout\ $end
$var wire 1 | \ULA|Add0~10\ $end
$var wire 1 } \ULA|Add0~13_sumout\ $end
$var wire 1 ~ \SW[4]~input_o\ $end
$var wire 1 !! \regB|DOUT[4]~feeder_combout\ $end
$var wire 1 "! \ULA|Add0~14\ $end
$var wire 1 #! \ULA|Add0~17_sumout\ $end
$var wire 1 $! \SW[5]~input_o\ $end
$var wire 1 %! \regB|DOUT[5]~feeder_combout\ $end
$var wire 1 &! \ULA|Add0~18\ $end
$var wire 1 '! \ULA|Add0~21_sumout\ $end
$var wire 1 (! \SW[6]~input_o\ $end
$var wire 1 )! \ULA|Add0~22\ $end
$var wire 1 *! \ULA|Add0~25_sumout\ $end
$var wire 1 +! \SW[7]~input_o\ $end
$var wire 1 ,! \ULA|Add0~26\ $end
$var wire 1 -! \ULA|Add0~29_sumout\ $end
$var wire 1 .! \SW[8]~input_o\ $end
$var wire 1 /! \regB|DOUT\ [7] $end
$var wire 1 0! \regB|DOUT\ [6] $end
$var wire 1 1! \regB|DOUT\ [5] $end
$var wire 1 2! \regB|DOUT\ [4] $end
$var wire 1 3! \regB|DOUT\ [3] $end
$var wire 1 4! \regB|DOUT\ [2] $end
$var wire 1 5! \regB|DOUT\ [1] $end
$var wire 1 6! \regB|DOUT\ [0] $end
$var wire 1 7! \regA|DOUT\ [7] $end
$var wire 1 8! \regA|DOUT\ [6] $end
$var wire 1 9! \regA|DOUT\ [5] $end
$var wire 1 :! \regA|DOUT\ [4] $end
$var wire 1 ;! \regA|DOUT\ [3] $end
$var wire 1 <! \regA|DOUT\ [2] $end
$var wire 1 =! \regA|DOUT\ [1] $end
$var wire 1 >! \regA|DOUT\ [0] $end
$var wire 1 ?! \regB|ALT_INV_DOUT\ [7] $end
$var wire 1 @! \regB|ALT_INV_DOUT\ [6] $end
$var wire 1 A! \regB|ALT_INV_DOUT\ [5] $end
$var wire 1 B! \regB|ALT_INV_DOUT\ [4] $end
$var wire 1 C! \regB|ALT_INV_DOUT\ [3] $end
$var wire 1 D! \regB|ALT_INV_DOUT\ [2] $end
$var wire 1 E! \regB|ALT_INV_DOUT\ [1] $end
$var wire 1 F! \regB|ALT_INV_DOUT\ [0] $end
$var wire 1 G! \ALT_INV_FPGA_RESET_N~input_o\ $end
$var wire 1 H! \ALT_INV_SW[5]~input_o\ $end
$var wire 1 I! \ALT_INV_SW[4]~input_o\ $end
$var wire 1 J! \ALT_INV_SW[3]~input_o\ $end
$var wire 1 K! \ALT_INV_SW[1]~input_o\ $end
$var wire 1 L! \ALT_INV_KEY[3]~input_o\ $end
$var wire 1 M! \ALT_INV_KEY[1]~input_o\ $end
$var wire 1 N! \ALT_INV_KEY[2]~input_o\ $end
$var wire 1 O! \ALT_INV_KEY[0]~input_o\ $end
$var wire 1 P! \ALT_INV_SW[9]~input_o\ $end
$var wire 1 Q! \detectorCLOCK|ALT_INV_saidaQ~q\ $end
$var wire 1 R! \detectorRSTA|ALT_INV_saida~combout\ $end
$var wire 1 S! \detectorRSTA|ALT_INV_saidaQ~q\ $end
$var wire 1 T! \detectorRSTB|ALT_INV_saida~combout\ $end
$var wire 1 U! \detectorRSTB|ALT_INV_saidaQ~q\ $end
$var wire 1 V! \regA|ALT_INV_DOUT\ [7] $end
$var wire 1 W! \regA|ALT_INV_DOUT\ [6] $end
$var wire 1 X! \regA|ALT_INV_DOUT\ [5] $end
$var wire 1 Y! \regA|ALT_INV_DOUT\ [4] $end
$var wire 1 Z! \regA|ALT_INV_DOUT\ [3] $end
$var wire 1 [! \regA|ALT_INV_DOUT\ [2] $end
$var wire 1 \! \regA|ALT_INV_DOUT\ [1] $end
$var wire 1 ]! \regA|ALT_INV_DOUT\ [0] $end
$upscope $end
$upscope $end
$enddefinitions $end
#0
$dumpvars
0!
0"
0;
1<
x=
1>
1?
1@
1A
1B
1C
0\
0]
x^
0_
0`
0a
0b
0c
0d
0e
1f
0g
0h
0i
0j
1k
0l
1m
0n
1o
1p
0q
0r
0s
0t
0u
0v
1w
0x
0y
1z
1{
0|
0}
1~
1!!
0"!
0#!
1$!
1%!
0&!
0'!
1(!
0)!
0*!
0+!
0,!
0-!
0.!
1G!
0H!
0I!
0J!
1K!
0L!
1M!
1N!
0O!
0P!
1Q!
0R!
1S!
1T!
1U!
1#
0$
0%
1&
11
02
03
14
15
16
17
18
09
0:
1D
0E
0F
1G
1H
1I
1J
1K
0L
0M
1N
0O
0P
1Q
1R
0S
0T
0U
0V
0W
0X
0Y
0Z
0[
0/!
00!
01!
02!
03!
04!
05!
06!
07!
08!
09!
0:!
0;!
0<!
0=!
0>!
1?!
1@!
1A!
1B!
1C!
1D!
1E!
1F!
1V!
1W!
1X!
1Y!
1Z!
1[!
1\!
1]!
1'
0(
0)
0*
0+
0,
0-
0.
0/
00
$end
#5000
1%
0&
1!
1"
01
04
06
1:
0Q
1P
1\
1]
1M
0I
0G
0D
0k
0(!
0~
1e
1_
1`
1l
0f
1a
1O!
0M!
0G!
1I!
1P!
1q
1r
1v
1y
1}
1#!
1'!
1*!
1-!
0!!
1b
1d
0m
0o
1g
1i
1n
0S!
0T!
1R!
0R
16!
14!
13!
12!
11!
0r
1u
06!
04!
03!
02!
01!
0A!
0B!
0C!
0D!
0F!
0'
0v
1x
1A!
1B!
1C!
1D!
1F!
1T
1U
1V
1W
1X
1Y
1Z
1[
1r
0u
0y
0}
0#!
0'!
0r
1u
1}
1#!
1'!
1|
10
1/
1.
1-
1,
1+
1*
1)
0[
1v
0x
0}
1"!
0v
1x
00
0Z
1y
0|
0V
0W
0X
0Y
1[
0y
1|
0#!
1&!
0/
1V
1W
1X
0[
1}
0"!
10
0.
0-
0,
0+
1Z
0'!
1)!
0}
1"!
00
1-
1,
1+
0Z
0X
1#!
0&!
1/
1Y
0#!
1&!
0*!
1,!
0/
0-
0W
0Y
1'!
0)!
1.
1X
0-!
0'!
1)!
0.
0,
0X
0V
1*!
0,!
1-
1W
0*!
1,!
0-
0+
0U
0W
1-!
1,
1V
0-!
0,
0*
0V
0T
1+
1U
0+
0)
0U
1*
1T
0*
0T
1)
0)
#10000
0"
14
16
0:
1$
13
08
0]
0M
0K
1I
1G
1F
1O
1j
1+!
1(!
1~
0w
0e
0_
1G!
0I!
0N!
1!!
0b
0d
#15000
1"
1:
03
0%
0!
11
12
05
07
1]
1M
0J
0H
0F
1E
1D
0P
0\
0`
0l
1k
1.!
0+!
0$!
0z
1e
1_
0a
0G!
1J!
1H!
0P!
1M!
1m
0q
1r
0u
1v
0x
1y
0|
1}
0"!
1#!
0&!
1'!
0)!
1*!
0,!
1-!
0%!
0{
1b
1d
1S
1R
0-!
0*!
0'!
0#!
0}
0y
0v
0r
1(
1'
1T
1U
1V
1W
1X
1Y
1Z
1[
10
1/
1.
1-
1,
1+
1*
1)
0[
0Z
0Y
0X
0W
0V
0U
0T
00
0/
0.
0-
0,
0+
0*
0)
#20000
0"
0:
1%
01
02
17
04
06
0#
19
0]
0M
1L
1J
0I
0G
0E
0D
1P
0N
0p
1l
0k
0.!
0(!
0~
1z
1s
0e
0_
1G!
0K!
0J!
1I!
1P!
0M!
1L!
0m
1q
1r
1v
1y
1}
1#!
1'!
1*!
1-!
0!!
1{
1t
0b
0d
0S
0R
0r
1u
0(
0'
0v
1x
1T
1U
1V
1W
1X
1Y
1Z
1[
0y
1|
10
1/
1.
1-
1,
1+
1*
1)
0[
0}
1"!
00
0Z
0#!
1&!
0/
0Y
0'!
1)!
0.
0X
0*!
1,!
0-
0W
0-!
0,
0V
0+
0U
0*
0T
0)
#25000
0%
14
13
0$
1&
1Q
0P
0O
1G
1F
1+!
1(!
0j
0l
1f
0O!
1M!
1N!
1m
0g
0i
1T!
#30000
1%
04
1$
11
12
1#
09
15
18
1P
1O
1N
0L
1K
1H
0G
1E
1D
1k
1.!
0(!
1$!
1w
0s
1p
1j
1l
0M!
0N!
0L!
1K!
0H!
0P!
0q
1r
0u
1v
0x
1y
0|
1}
0"!
1#!
0&!
1'!
0)!
1*!
0,!
1-!
1%!
0t
0m
1S
1R
0-!
0*!
0'!
0#!
0}
0y
0v
0r
1(
1'
1T
1U
1V
1W
1X
1Y
1Z
1[
10
1/
1.
1-
1,
1+
1*
1)
0[
0Z
0Y
0X
0W
0V
0U
0T
00
0/
0.
0-
0,
0+
0*
0)
#35000
0%
02
1"
07
0P
0J
0E
1]
1_
0.!
0z
0l
1M!
1J!
0G!
1b
1d
0{
1m
0S
0(
#40000
14
0$
01
19
0&
1!
1L
1G
0D
0Q
0O
1\
1`
0j
0f
0k
1(!
1s
1a
0K!
1P!
1O!
1N!
1g
1i
1q
1r
1v
1y
1}
1#!
1'!
1*!
1-!
1t
1c
0Q!
0T!
0R
0r
1u
0d
0'
0v
1x
1T
1U
1V
1W
1X
1Y
1Z
1[
0y
1|
10
1/
1.
1-
1,
1+
1*
1)
0[
0}
1"!
00
0Z
0#!
1&!
0/
0Y
0'!
1)!
0.
0X
0*!
1,!
0-
0W
0-!
0,
0V
0+
0U
0*
0T
0)
#45000
04
1$
1&
0#
05
16
1I
0H
0G
1Q
1O
0N
0p
1j
1f
0(!
0$!
1~
0I!
1H!
0O!
0N!
1L!
0g
0i
0%!
1!!
1T!
#50000
14
0$
06
11
09
0L
0I
1G
1D
0O
0j
1k
1(!
0~
0s
1K!
1I!
0P!
1N!
0q
1r
0u
1v
0x
1y
0|
1}
0"!
1#!
0&!
1'!
0)!
1*!
0,!
1-!
0!!
0t
1R
0-!
0*!
0'!
0#!
0}
0y
0v
0r
1'
1T
1U
1V
1W
1X
1Y
1Z
1[
10
1/
1.
1-
1,
1+
1*
1)
0[
0Z
0Y
0X
0W
0V
0U
0T
00
0/
0.
0-
0,
0+
0*
0)
#55000
16
01
0&
15
1%
12
0"
08
1:
1M
0K
1I
1H
1E
0D
0Q
1P
0]
0_
1l
0f
0k
1.!
1$!
1~
0w
1e
0I!
0H!
1P!
1O!
0M!
1G!
0b
0m
1g
1i
1q
1r
1v
1y
1}
1#!
1'!
1*!
1-!
1%!
1!!
0T!
1S
0R
0r
1u
1(
0'
0v
1x
1T
1U
1V
1W
1X
1Y
1Z
1[
0y
1|
10
1/
1.
1-
1,
1+
1*
1)
0[
0}
1"!
00
0Z
0#!
1&!
0/
0Y
0'!
1)!
0.
0X
0*!
1,!
0-
0W
0-!
0,
0V
0+
0U
0*
0T
0)
#60000
05
0%
1"
1$
19
1#
0!
1L
0H
0P
1O
1N
1]
0\
0`
1_
1p
1j
0l
0$!
1s
0a
0K!
1H!
1M!
0N!
0L!
0G!
1b
1m
0%!
1t
#65000
15
1%
0"
0$
0#
1!
11
1&
02
18
04
17
03
1K
1J
1H
0G
0F
0E
1D
1Q
1P
0O
0N
0]
1\
1`
0_
0p
0j
1l
1f
1k
0.!
0+!
0(!
1$!
1z
1w
1a
0J!
0H!
0P!
0O!
0M!
1N!
1L!
1G!
0b
0m
0g
0i
0q
1r
0u
1v
0x
1y
0|
1}
0"!
1#!
0&!
1'!
0)!
1*!
0,!
1-!
1%!
1{
1h
0U!
1T!
0S
1R
0-!
0*!
0'!
0#!
0}
0y
0v
0r
0(
1'
1T
1U
1V
1W
1X
1Y
1Z
1[
10
1/
1.
1-
1,
1+
1*
1)
0[
0Z
0Y
0X
0W
0V
0U
0T
00
0/
0.
0-
0,
0+
0*
0)
#70000
05
1#
0&
08
14
07
09
06
0L
0K
0J
0I
0H
1G
0Q
1N
1p
0f
1(!
0$!
0~
0z
0w
0s
1K!
1J!
1I!
1H!
1O!
0L!
1g
0%!
0!!
0{
0t
#75000
0#
1&
18
1$
0!
01
0:
1Q
1O
0N
0M
1K
0D
0\
0`
0k
1w
0e
0p
1j
1f
0a
0O!
0N!
1L!
1P!
1q
1r
1v
1y
1}
1#!
1'!
1*!
1-!
0g
0R
0r
1u
0'
0v
1x
1T
1U
1V
1W
1X
1Y
1Z
1[
0y
1|
10
1/
1.
1-
1,
1+
1*
1)
0[
0}
1"!
00
0Z
0#!
1&!
0/
0Y
0'!
1)!
0.
0X
0*!
1,!
0-
0W
0-!
0,
0V
0+
0U
0*
0T
0)
#80000
0&
08
0$
1!
11
15
04
17
16
0%
12
0Q
0P
0O
0K
1J
1I
1H
0G
1E
1D
1\
1`
1k
1.!
0(!
1$!
1~
1z
0w
0j
0l
0f
1a
1O!
1M!
1N!
0J!
0I!
0H!
0P!
0q
1r
0u
1v
0x
1y
0|
1}
0"!
1#!
0&!
1'!
0)!
1*!
0,!
1-!
1%!
1!!
1{
1m
1g
0c
0h
0n
1S!
1U!
1Q!
1S
1R
0-!
0*!
0'!
0#!
0}
0y
0v
0r
1i
1o
1(
1'
0R!
0T!
1T
1U
1V
1W
1X
1Y
1Z
1[
10
1/
1.
1-
1,
1+
1*
1)
0[
0Z
0Y
0X
0W
0V
0U
0T
00
0/
0.
0-
0,
0+
0*
0)
#85000
1&
1$
0!
01
14
06
1%
1#
1:
1Q
1P
1O
1N
0\
1M
0I
1G
0D
0k
1(!
0~
1e
0`
1p
1j
1l
1f
0a
0O!
0M!
0N!
0L!
1I!
1P!
1q
1r
1v
1y
1}
1#!
1'!
1*!
1-!
0!!
0m
0o
0g
0i
1T!
1R!
0R
0r
1u
0'
0v
1x
1T
1U
1V
1W
1X
1Y
1Z
1[
0y
1|
10
1/
1.
1-
1,
1+
1*
1)
0[
0}
1"!
00
0Z
0#!
1&!
0/
0Y
0'!
1)!
0.
0X
0*!
1,!
0-
0W
0-!
0,
0V
0+
0U
0*
0T
0)
#90000
04
0%
0#
0:
18
02
19
0M
1L
1K
0G
0E
0P
0N
0p
0l
0.!
0(!
1w
1s
0e
0K!
1M!
1L!
1m
1o
1t
0R!
0S
0(
#95000
1%
1#
12
09
0&
0$
11
16
05
1"
13
0Q
1P
0O
1N
0L
1I
0H
1F
1E
1D
1]
1_
1k
1.!
1+!
0$!
1~
0s
1p
0j
1l
0f
1O!
0M!
1N!
0L!
1K!
0I!
1H!
0P!
0G!
1b
1d
0q
1r
0u
1v
0x
1y
0|
1}
0"!
1#!
0&!
1'!
0)!
1*!
0,!
1-!
0%!
1!!
0t
0m
0o
1g
1i
0T!
1R!
1S
1R
0-!
0*!
0'!
0#!
0}
0y
0v
0r
15!
14!
13!
11!
1/!
05!
04!
03!
01!
0/!
0?!
0A!
0C!
0D!
0E!
1(
1'
1?!
1A!
1C!
1D!
1E!
1T
1U
1V
1W
1X
1Y
1Z
1[
1v
1y
1}
1'!
1-!
0v
0y
0}
0'!
0-!
10
1/
1.
1-
1,
1+
1*
1)
0[
0Z
0Y
0X
0W
0V
0U
0T
00
0/
0.
0-
0,
0+
0*
0)
1T
1V
1X
1Y
1Z
0T
0V
0X
0Y
0Z
1/
1.
1-
1+
1)
0/
0.
0-
0+
0)
#100000
0%
0#
15
14
08
1!
07
0P
0N
0K
0J
1H
1G
1\
1`
1(!
1$!
0z
0w
0p
0l
1a
1M!
1L!
1J!
0H!
1%!
0{
1m
1o
1c
1h
0U!
0Q!
0R!
0d
0i
1T!
#105000
1#
05
18
1&
0"
1:
1Q
1N
1M
1K
0H
0]
0_
0$!
1w
1e
1p
1f
0O!
0L!
1H!
1G!
0b
0%!
0g
#110000
0&
1"
0:
04
0!
19
1$
01
06
03
0Q
1O
1]
0M
1L
0I
0G
0F
0D
0\
0`
0k
0+!
0(!
0~
1s
0e
1_
1j
0f
0a
1O!
0N!
0G!
0K!
1I!
1P!
1q
1r
1v
1y
1}
1#!
1'!
1*!
1-!
0!!
1t
1b
1g
0R
0r
1u
0'
0v
1x
1T
1U
1V
1W
1X
1Y
1Z
1[
0y
1|
10
1/
1.
1-
1,
1+
1*
1)
0[
0}
1"!
00
0Z
0#!
1&!
0/
0Y
0'!
1)!
0.
0X
0*!
1,!
0-
0W
0-!
0,
0V
0+
0U
0*
0T
0)
#115000
1!
13
0#
08
17
02
1\
0K
1J
1F
0E
0N
0p
0.!
1+!
1z
0w
1`
1a
0J!
1L!
1{
1n
0S!
0S
0o
0(
1R!
#120000
1#
07
12
1&
0"
14
09
0$
1%
1Q
1P
0O
1N
0L
0J
1G
1E
0]
0_
1.!
1(!
0z
0s
1p
0j
1l
1f
0O!
0M!
1N!
0L!
1K!
1J!
1G!
0b
0{
0t
0m
0g
1S
1(
#125000
17
02
1$
11
16
1J
1I
0E
1D
1O
1j
1k
0.!
1~
1z
0J!
0I!
0P!
0N!
0q
1r
0u
1v
0x
1y
0|
1}
0"!
1#!
0&!
1'!
0)!
1*!
0,!
1-!
1!!
1{
0S
1R
0-!
0*!
0'!
0#!
0}
0y
0v
0r
0(
1'
1T
1U
1V
1W
1X
1Y
1Z
1[
10
1/
1.
1-
1,
1+
1*
1)
0[
0Z
0Y
0X
0W
0V
0U
0T
00
0/
0.
0-
0,
0+
0*
0)
#130000
07
0$
01
0!
1:
1M
0J
0D
0O
0\
0`
0j
0k
0z
1e
0a
1J!
1P!
1N!
1q
1r
1v
1y
1}
1#!
1'!
1*!
1-!
0{
0R
0r
1u
0'
0v
1x
1T
1U
1V
1W
1X
1Y
1Z
1[
0y
1|
10
1/
1.
1-
1,
1+
1*
1)
0[
0}
1"!
00
0Z
0#!
1&!
0/
0Y
0'!
1)!
0.
0X
0*!
1,!
0-
0W
0-!
0,
0V
0+
0U
0*
0T
0)
#135000
1$
12
06
0&
1"
19
15
0Q
1O
1L
0I
1H
1E
1]
1_
1.!
1$!
0~
1s
1j
0f
1O!
0N!
0K!
1I!
0H!
0G!
1b
1%!
0!!
1t
1g
1S
1(
#140000
02
16
0"
11
0#
0%
03
18
1K
1I
0F
0E
1D
0]
0P
0N
0p
0l
0_
1k
0.!
0+!
1~
1w
0I!
0P!
1G!
1M!
1L!
1m
0b
0q
1r
0u
1v
0x
1y
0|
1}
0"!
1#!
0&!
1'!
0)!
1*!
0,!
1-!
1!!
0S
1R
0-!
0*!
0'!
0#!
0}
0y
0v
0r
0(
1'
1T
1U
1V
1W
1X
1Y
1Z
1[
10
1/
1.
1-
1,
1+
1*
1)
0[
0Z
0Y
0X
0W
0V
0U
0T
00
0/
0.
0-
0,
0+
0*
0)
#145000
12
06
1"
01
08
1&
17
0:
04
0M
0K
1J
0I
0G
1E
0D
1]
1Q
1f
1_
0k
1.!
0(!
0~
1z
0w
0e
0J!
1I!
1P!
0G!
0O!
0g
1b
1q
1r
1v
1y
1}
1#!
1'!
1*!
1-!
0!!
1{
1S
0R
0r
1u
1(
0'
0v
1x
1T
1U
1V
1W
1X
1Y
1Z
1[
0y
1|
10
1/
1.
1-
1,
1+
1*
1)
0[
0}
1"!
00
0Z
0#!
1&!
0/
0Y
0'!
1)!
0.
0X
0*!
1,!
0-
0W
0-!
0,
0V
0+
0U
0*
0T
0)
#150000
16
0"
11
0&
1:
14
1#
1%
0$
09
1!
1M
0L
1I
1G
1D
0]
0Q
1P
0O
1N
1\
1`
1p
0j
1l
0f
0_
1k
1(!
1~
0s
1e
1a
1K!
0I!
0P!
1G!
1O!
0M!
1N!
0L!
0m
1g
0b
0q
1r
0u
1v
0x
1y
0|
1}
0"!
1#!
0&!
1'!
0)!
1*!
0,!
1-!
1!!
0t
0h
1U!
1R
0-!
0*!
0'!
0#!
0}
0y
0v
0r
1i
1'
0T!
1T
1U
1V
1W
1X
1Y
1Z
1[
10
1/
1.
1-
1,
1+
1*
1)
0[
0Z
0Y
0X
0W
0V
0U
0T
00
0/
0.
0-
0,
0+
0*
0)
#155000
06
1"
01
1&
04
0#
0%
19
05
1L
0I
0H
0G
0D
1]
1Q
0P
0N
0p
0l
1f
1_
0k
0(!
0$!
0~
1s
0K!
1I!
1H!
1P!
0G!
0O!
1M!
1L!
1m
0g
0i
1b
1q
1r
1v
1y
1}
1#!
1'!
1*!
1-!
0%!
0!!
1t
1T!
0R
0r
1u
0'
0v
1x
1T
1U
1V
1W
1X
1Y
1Z
1[
0y
1|
10
1/
1.
1-
1,
1+
1*
1)
0[
0}
1"!
00
0Z
0#!
1&!
0/
0Y
0'!
1)!
0.
0X
0*!
1,!
0-
0W
0-!
0,
0V
0+
0U
0*
0T
0)
#160000
16
0"
11
0&
14
1#
1%
09
1$
0!
02
07
0L
0J
1I
1G
0E
1D
0]
0Q
1P
1O
1N
0\
0`
1p
1j
1l
0f
0_
1k
0.!
1(!
1~
0z
0s
0a
1K!
1J!
0I!
0P!
1G!
1O!
0M!
0N!
0L!
0m
1g
1i
0b
0q
1r
0u
1v
0x
1y
0|
1}
0"!
1#!
0&!
1'!
0)!
1*!
0,!
1-!
1!!
0{
0t
0T!
0S
1R
0-!
0*!
0'!
0#!
0}
0y
0v
0r
0(
1'
1T
1U
1V
1W
1X
1Y
1Z
1[
10
1/
1.
1-
1,
1+
1*
1)
0[
0Z
0Y
0X
0W
0V
0U
0T
00
0/
0.
0-
0,
0+
0*
0)
#165000
1"
19
0$
1!
12
18
13
1]
1L
1K
1F
1E
0O
1\
1`
0j
1.!
1+!
1w
1s
1_
1a
0G!
0K!
1N!
1t
1b
0c
1h
0n
1S!
0U!
1Q!
1S
1d
0i
1(
1T!
#170000
0"
1$
08
03
1&
0%
17
0]
1Q
0P
1O
0K
1J
0F
0+!
1z
0w
1j
0l
1f
0_
1G!
0O!
1M!
0N!
0J!
1{
1m
1o
0g
0b
0d
0R!
#175000
1"
0$
18
13
1%
09
0:
1]
1P
0O
0M
0L
1K
1F
1+!
1w
0s
0e
0j
1l
1_
0G!
0M!
1N!
1K!
0t
0m
0o
1b
1d
1R!
15!
14!
13!
12!
10!
1/!
0?!
0@!
0B!
0C!
0D!
0E!
1v
1y
1}
1#!
1*!
1-!
1T
1U
1W
1X
1Y
1Z
1/
1.
1-
1,
1*
1)
#180000
08
03
07
02
06
01
04
0#
15
0K
0J
0I
1H
0G
0F
0E
0D
0N
0p
0k
0.!
0+!
0(!
1$!
0~
0z
0w
1J!
1I!
0H!
1P!
1L!
1q
1r
0v
0y
0}
0#!
1'!
0*!
0-!
1%!
0!!
0{
0S
0R
0r
1u
0(
0'
1v
0T
0U
1V
0W
0X
0Y
0Z
1[
10
0/
0.
0-
0,
1+
0*
0)
0[
00
1Z
1/
#185000
13
17
12
0%
1:
0&
1M
1J
1F
1E
0Q
0P
0l
0f
1.!
1+!
1z
1e
0J!
1O!
1M!
1m
1o
1g
1{
0R!
1S
1(
#190000
03
07
1%
0:
14
05
0"
1$
19
0M
1L
0J
0H
1G
0F
1P
1O
0]
0_
1j
1l
0+!
1(!
0$!
0z
1s
0e
0K!
1J!
1H!
0M!
0N!
1G!
0b
0d
0m
0o
0%!
0{
1t
1R!
#195000
17
1"
0$
16
11
1#
0!
1J
1I
1D
1]
0O
1N
0\
0`
1p
0j
1_
1k
1~
1z
0a
0J!
0I!
0P!
0G!
1N!
0L!
1b
1d
0q
1r
0u
0v
1x
1y
1}
1#!
0'!
1*!
1-!
1!!
1{
1R
0y
1|
1v
0x
0r
04!
03!
02!
0/!
1?!
1B!
1C!
1D!
1'
1y
0|
0}
1"!
1T
1U
0V
1W
1X
1Y
0Z
1[
0y
1}
0"!
0#!
0-!
1#!
0}
10
0/
1.
1-
1,
0+
1*
1)
0[
1Z
0Y
0#!
00
1/
0.
0X
1Y
0T
0W
1X
0Y
1.
0-
0X
1W
0.
1-
0,
0)
0W
0-
1,
0,
#200000
07
0"
0#
13
1:
15
02
1&
18
1M
1K
0J
1H
1F
0E
0]
1Q
0N
0p
1f
0_
0.!
1+!
1$!
0z
1w
1e
1J!
0H!
1G!
0O!
1L!
0g
0b
0d
1%!
0{
0S
0(
#205000
1"
0:
05
1$
01
0%
04
09
1]
0M
0L
0H
0G
0D
0P
1O
1j
0l
0k
0(!
0$!
0s
0e
1_
0G!
1K!
1H!
1P!
1M!
0N!
1m
1o
1q
1r
0v
1y
1}
1#!
1'!
0*!
1-!
0%!
0t
1b
1d
0R!
0R
1<!
1:!
17!
0r
1u
0<!
0:!
07!
0V!
0Y!
0[!
0'
1v
1V!
1Y!
1[!
1T
0U
1V
1W
1X
1Y
0Z
1[
0y
1|
0#!
1&!
0-!
1y
0|
1#!
0&!
1-!
10
0/
1.
1-
1,
1+
0*
1)
0[
0'!
1)!
0}
1"!
1'!
0)!
1}
0"!
00
1Z
0#!
1&!
1*!
0T
0W
0Y
1#!
0&!
0*!
1/
1T
1W
1Y
0'!
1)!
0.
0,
0)
0X
0V
1'!
0)!
1.
1,
1)
1X
1V
1*!
0-
0+
1U
0W
0*!
1-
1+
0U
1W
0,
1*
0V
1,
0*
1V
0+
1U
1+
0U
1*
0*
#210000
15
0$
11
1%
14
17
1#
0&
1J
1H
1G
1D
0Q
1P
0O
1N
1p
0j
1l
0f
1k
1(!
1$!
1z
0J!
0H!
0P!
1O!
0M!
1N!
0L!
0m
0o
1g
0q
1r
0u
0v
1x
0y
0}
0#!
0'!
1*!
0-!
1%!
1{
1R!
1R
1y
1v
0x
0r
1'
0y
0T
1U
0V
0W
0X
0Y
0Z
1[
10
0/
0.
0-
0,
0+
1*
0)
0[
1Z
1Y
00
1/
1.
0Y
0.
#215000
05
01
1&
0"
12
08
1!
0K
0H
1E
0D
1Q
0]
1\
1`
0_
1f
0k
1.!
0$!
0w
1a
1H!
1P!
0O!
1G!
0b
0d
0g
1q
1r
0v
1y
1}
1#!
1'!
0*!
1-!
0%!
1c
0Q!
1S
0R
0r
1u
1(
0'
1v
1T
0U
1V
1W
1X
1Y
0Z
1[
10
0/
1.
1-
1,
1+
0*
1)
0[
00
1Z
1/
