Aula03/simulation/qsim/Aula03.msim.vcd
$comment
	File created using the following command:
		vcd file Aula03.msim.vcd -direction
$end
$date
	Thu Sep 03 11:33:08 2020
$end
$version
	ModelSim Version 2020.1
$end
$timescale
	1ps
$end

$scope module aula03_vhd_vec_tst $end
$var wire 1 ! CLOCK_50 $end
$var wire 1 " FPGA_RESET_N $end
$var wire 1 # LEDR [9] $end
$var wire 1 $ LEDR [8] $end
$var wire 1 % LEDR [7] $end
$var wire 1 & LEDR [6] $end
$var wire 1 ' LEDR [5] $end
$var wire 1 ( LEDR [4] $end
$var wire 1 ) LEDR [3] $end
$var wire 1 * LEDR [2] $end
$var wire 1 + LEDR [1] $end
$var wire 1 , LEDR [0] $end

$scope module i1 $end
$var wire 1 - gnd $end
$var wire 1 . vcc $end
$var wire 1 / unknown $end
$var wire 1 0 devoe $end
$var wire 1 1 devclrn $end
$var wire 1 2 devpor $end
$var wire 1 3 ww_devoe $end
$var wire 1 4 ww_devclrn $end
$var wire 1 5 ww_devpor $end
$var wire 1 6 ww_CLOCK_50 $end
$var wire 1 7 ww_FPGA_RESET_N $end
$var wire 1 8 ww_LEDR [9] $end
$var wire 1 9 ww_LEDR [8] $end
$var wire 1 : ww_LEDR [7] $end
$var wire 1 ; ww_LEDR [6] $end
$var wire 1 < ww_LEDR [5] $end
$var wire 1 = ww_LEDR [4] $end
$var wire 1 > ww_LEDR [3] $end
$var wire 1 ? ww_LEDR [2] $end
$var wire 1 @ ww_LEDR [1] $end
$var wire 1 A ww_LEDR [0] $end
$var wire 1 B \FPGA_RESET_N~input_o\ $end
$var wire 1 C \CLOCK_50~input_o\ $end
$var wire 1 D \detectorCLK|saidaQ~0_combout\ $end
$var wire 1 E \detectorCLK|saidaQ~q\ $end
$var wire 1 F \detectorCLK|saida~combout\ $end
$var wire 1 G \maqEstados|regA|DOUT[0]~1_combout\ $end
$var wire 1 H \maqEstados|memoria1|memROM~2_combout\ $end
$var wire 1 I \maqEstados|regA|DOUT[2]~0_combout\ $end
$var wire 1 J \maqEstados|memoria1|memROM~3_combout\ $end
$var wire 1 K \maqEstados|memoria1|memROM~4_combout\ $end
$var wire 1 L \maqEstados|memoria1|memROM~5_combout\ $end
$var wire 1 M \regA|DOUT[0]~feeder_combout\ $end
$var wire 1 N \maqEstados|memoria1|memROM~1_combout\ $end
$var wire 1 O \maqEstados|memoria1|memROM~6_combout\ $end
$var wire 1 P \ULA|Add0~34_cout\ $end
$var wire 1 Q \ULA|Add0~1_sumout\ $end
$var wire 1 R \regB|DOUT[1]~feeder_combout\ $end
$var wire 1 S \regA|DOUT[1]~feeder_combout\ $end
$var wire 1 T \ULA|Add0~2\ $end
$var wire 1 U \ULA|Add0~5_sumout\ $end
$var wire 1 V \maqEstados|memoria1|memROM~7_combout\ $end
$var wire 1 W \regA|DOUT[2]~feeder_combout\ $end
$var wire 1 X \ULA|Add0~6\ $end
$var wire 1 Y \ULA|Add0~9_sumout\ $end
$var wire 1 Z \regA|DOUT[3]~feeder_combout\ $end
$var wire 1 [ \~GND~combout\ $end
$var wire 1 \ \ULA|Add0~10\ $end
$var wire 1 ] \ULA|Add0~13_sumout\ $end
$var wire 1 ^ \regA|DOUT[4]~feeder_combout\ $end
$var wire 1 _ \ULA|Add0~14\ $end
$var wire 1 ` \ULA|Add0~17_sumout\ $end
$var wire 1 a \regA|DOUT[5]~feeder_combout\ $end
$var wire 1 b \ULA|Add0~18\ $end
$var wire 1 c \ULA|Add0~21_sumout\ $end
$var wire 1 d \regA|DOUT[6]~feeder_combout\ $end
$var wire 1 e \maqEstados|memoria1|memROM~8_combout\ $end
$var wire 1 f \ULA|Add0~22\ $end
$var wire 1 g \ULA|Add0~25_sumout\ $end
$var wire 1 h \regA|DOUT[7]~feeder_combout\ $end
$var wire 1 i \ULA|Add0~26\ $end
$var wire 1 j \ULA|Add0~29_sumout\ $end
$var wire 1 k \maqEstados|memoria1|memROM~0_combout\ $end
$var wire 1 l \regA|DOUT\ [7] $end
$var wire 1 m \regA|DOUT\ [6] $end
$var wire 1 n \regA|DOUT\ [5] $end
$var wire 1 o \regA|DOUT\ [4] $end
$var wire 1 p \regA|DOUT\ [3] $end
$var wire 1 q \regA|DOUT\ [2] $end
$var wire 1 r \regA|DOUT\ [1] $end
$var wire 1 s \regA|DOUT\ [0] $end
$var wire 1 t \maqEstados|regA|DOUT\ [3] $end
$var wire 1 u \maqEstados|regA|DOUT\ [2] $end
$var wire 1 v \maqEstados|regA|DOUT\ [1] $end
$var wire 1 w \maqEstados|regA|DOUT\ [0] $end
$var wire 1 x \regB|DOUT\ [7] $end
$var wire 1 y \regB|DOUT\ [6] $end
$var wire 1 z \regB|DOUT\ [5] $end
$var wire 1 { \regB|DOUT\ [4] $end
$var wire 1 | \regB|DOUT\ [3] $end
$var wire 1 } \regB|DOUT\ [2] $end
$var wire 1 ~ \regB|DOUT\ [1] $end
$var wire 1 !! \regB|DOUT\ [0] $end
$var wire 1 "! \regA|ALT_INV_DOUT\ [7] $end
$var wire 1 #! \regA|ALT_INV_DOUT\ [6] $end
$var wire 1 $! \regA|ALT_INV_DOUT\ [5] $end
$var wire 1 %! \regA|ALT_INV_DOUT\ [4] $end
$var wire 1 &! \regA|ALT_INV_DOUT\ [3] $end
$var wire 1 '! \regA|ALT_INV_DOUT\ [2] $end
$var wire 1 (! \regA|ALT_INV_DOUT\ [1] $end
$var wire 1 )! \regA|ALT_INV_DOUT\ [0] $end
$var wire 1 *! \ULA|ALT_INV_Add0~29_sumout\ $end
$var wire 1 +! \ULA|ALT_INV_Add0~25_sumout\ $end
$var wire 1 ,! \ULA|ALT_INV_Add0~21_sumout\ $end
$var wire 1 -! \ULA|ALT_INV_Add0~17_sumout\ $end
$var wire 1 .! \ULA|ALT_INV_Add0~13_sumout\ $end
$var wire 1 /! \ULA|ALT_INV_Add0~9_sumout\ $end
$var wire 1 0! \ULA|ALT_INV_Add0~5_sumout\ $end
$var wire 1 1! \ULA|ALT_INV_Add0~1_sumout\ $end
$var wire 1 2! \maqEstados|regA|ALT_INV_DOUT\ [2] $end
$var wire 1 3! \maqEstados|regA|ALT_INV_DOUT\ [1] $end
$var wire 1 4! \maqEstados|regA|ALT_INV_DOUT\ [0] $end
$var wire 1 5! \maqEstados|memoria1|ALT_INV_memROM~0_combout\ $end
$var wire 1 6! \regB|ALT_INV_DOUT\ [6] $end
$var wire 1 7! \regB|ALT_INV_DOUT\ [5] $end
$var wire 1 8! \regB|ALT_INV_DOUT\ [4] $end
$var wire 1 9! \regB|ALT_INV_DOUT\ [3] $end
$var wire 1 :! \regB|ALT_INV_DOUT\ [2] $end
$var wire 1 ;! \regB|ALT_INV_DOUT\ [1] $end
$var wire 1 <! \regB|ALT_INV_DOUT\ [0] $end
$var wire 1 =! \maqEstados|memoria1|ALT_INV_memROM~1_combout\ $end
$var wire 1 >! \maqEstados|memoria1|ALT_INV_memROM~4_combout\ $end
$var wire 1 ?! \detectorCLK|ALT_INV_saidaQ~q\ $end
$var wire 1 @! \ALT_INV_FPGA_RESET_N~input_o\ $end
$upscope $end
$upscope $end
$enddefinitions $end
#0
$dumpvars
0!
0"
0-
1.
x/
10
11
12
13
14
15
06
07
0B
0C
1D
0E
0F
1G
0H
0I
1J
0K
1L
0M
0N
1O
0P
0Q
1R
0S
0T
0U
0V
0W
0X
0Y
0Z
0[
0\
0]
0^
0_
0`
0a
0b
0c
0d
0e
0f
0g
0h
0i
0j
0k
1*!
1+!
1,!
1-!
1.!
1/!
10!
11!
15!
1=!
1>!
1?!
1@!
08
19
0:
0;
0<
0=
0>
0?
0@
0A
0l
0m
0n
0o
0p
0q
0r
0s
xt
0u
0v
0w
xx
0y
xz
x{
x|
0}
0~
0!!
1"!
1#!
1$!
1%!
1&!
1'!
1(!
1)!
12!
13!
14!
16!
x7!
x8!
x9!
1:!
1;!
1<!
0#
1$
0%
0&
0'
0(
0)
0*
0+
0,
$end
#10000
1!
1"
16
17
1B
1C
0@!
1E
0D
0?!
1F
1w
1!!
1s
1~
1r
0(!
0;!
0)!
0<!
04!
0G
1H
0J
1N
1P
1Y
1]
1`
1c
1g
1j
1k
1Q
1U
00!
01!
05!
0*!
0+!
0,!
0-!
0.!
0/!
0=!
0Q
1T
1W
1Z
1^
1a
1d
1h
1M
1S
11!
0U
1X
1@
1A
1:
1;
1<
1=
1>
1?
18
0M
10!
09
0Y
1\
1,
1+
1*
1)
1(
1'
1&
1%
1#
0A
0S
1/!
0$
0]
1_
0,
0@
0W
1.!
0`
1b
0+
0?
0Z
1-!
0c
1f
0*
0>
0^
1,!
0g
1i
0)
0=
0a
1+!
0j
0(
0<
0d
1*!
0'
0;
0h
0&
0:
0%
#20000
0!
0"
06
07
0B
0C
1@!
1D
0F
#30000
1!
1"
16
17
1B
1C
0@!
0D
1F
0w
1v
0!!
0s
0r
1(!
1)!
1<!
03!
14!
1G
0L
1U
0X
00!
1Y
0\
1S
0/!
1]
0_
1@
1W
0.!
1`
0b
1+
1?
1Z
0-!
1c
0f
1*
1>
1^
0,!
1g
0i
1)
1=
1a
0+!
1j
1(
1<
1d
0*!
1'
1;
1h
1&
1:
1%
#40000
0!
0"
06
07
0B
0C
1@!
1D
0F
#50000
1!
1"
16
17
1B
1C
0@!
0D
1F
1w
1r
1q
1p
1o
1n
1m
1l
0"!
0#!
0$!
0%!
0&!
0'!
0(!
04!
0G
0H
1I
0U
1X
0Y
1\
0]
1_
0`
1b
0c
1f
0g
1i
0j
1*!
1+!
1,!
1-!
1.!
1/!
10!
1j
1g
1c
1`
1]
1Y
0S
0W
0Z
0^
0a
0d
0h
0/!
0.!
0-!
0,!
0+!
0*!
0:
0;
0<
0=
0>
0?
0@
1h
1d
1a
1^
1Z
1W
0+
0*
0)
0(
0'
0&
0%
1?
1>
1=
1<
1;
1:
1*
1)
1(
1'
1&
1%
#60000
0!
0"
06
07
0B
0C
1@!
1D
0F
#70000
1!
1"
16
17
1B
1C
0@!
0D
1F
0w
0v
1u
0r
1(!
02!
13!
14!
1G
0P
1Q
0T
0Y
0]
0`
0c
0g
0j
0k
1J
1L
1V
15!
1*!
1+!
1,!
1-!
1.!
1/!
01!
1U
0X
0Q
1M
0W
0Z
0^
0a
0d
0h
11!
00!
1Y
0\
0:
0;
0<
0=
0>
0?
1A
1S
0M
0/!
19
1]
0_
1,
0*
0)
0(
0'
0&
0%
0A
1@
1W
0.!
1$
1`
0b
0,
1+
1?
1Z
0-!
1c
0f
1*
1>
1^
0,!
1g
0i
1)
1=
1a
0+!
1j
1(
1<
1d
0*!
1'
1;
1h
1&
1:
1%
#80000
0!
0"
06
07
0B
0C
1@!
1D
0F
#90000
1!
1"
16
17
1B
1C
0@!
0D
1F
1w
1!!
1r
1}
0:!
0(!
0<!
04!
0G
1H
0J
0L
0N
0O
1P
0]
1_
0`
1b
0c
1f
1e
0g
1i
0j
1k
05!
1*!
1+!
1,!
1-!
1.!
1=!
1j
1g
1c
1`
1Q
0Z
0^
0a
0d
0h
01!
0-!
0,!
0+!
0*!
0:
0;
0<
0=
0>
08
1h
1d
1a
1^
1M
09
0)
0(
0'
0&
0%
0#
1A
1=
1<
1;
1:
0$
1,
1(
1'
1&
1%
#100000
0!
0"
06
07
0B
0C
1@!
1D
0F
#110000
1!
1"
16
17
1B
1C
0@!
0D
1F
0w
1v
03!
14!
1G
1J
#120000
0!
0"
06
07
0B
0C
1@!
1D
0F
#130000
1!
1"
16
17
1B
1C
0@!
0D
1F
1w
04!
0G
0H
0I
0J
1K
0V
0e
0>!
0!!
0~
0r
0}
0q
0p
0o
0n
0m
0l
1"!
1#!
1$!
1%!
1&!
1'!
1:!
1(!
1;!
1<!
0Q
1T
1]
0_
0`
0c
0g
0j
1*!
1+!
1,!
1-!
0.!
11!
1`
0b
0U
1X
0M
1Z
0^
0a
0d
0h
10!
0-!
0Y
1\
1c
0f
0:
0;
0<
0=
1>
0A
1^
0S
0,!
1/!
1g
0i
0]
1_
0,
1)
0(
0'
0&
0%
0@
1=
0W
1a
1.!
0+!
0`
1b
1j
0+
1(
1<
0?
1d
0Z
0*!
1-!
0c
1f
0*
1'
0>
1;
0^
1h
1,!
0g
1i
0)
1&
1:
0=
0a
1+!
0j
0(
1%
0<
0d
1*!
0'
0;
0h
0&
0:
0%
#140000
0!
0"
06
07
0B
0C
1@!
1D
0F
#150000
1!
1"
16
17
1B
1C
0@!
0D
1F
0w
0v
0u
12!
13!
14!
1G
0P
1Q
0T
1U
0X
1Y
0\
1]
0_
1`
0b
1c
0f
1g
0i
1j
0k
1J
0K
1L
1O
1>!
15!
0*!
0+!
0,!
0-!
0.!
0/!
00!
01!
0j
0g
0c
0`
0]
0Y
0U
0Q
1M
1S
1W
1Z
1^
1a
1d
1h
11!
10!
1/!
1.!
1-!
1,!
1+!
1*!
1:
1;
1<
1=
1>
1?
1@
1A
0h
0d
0a
0^
0Z
0W
0S
0M
19
1,
1+
1*
1)
1(
1'
1&
1%
0A
0@
0?
0>
0=
0<
0;
0:
1$
0,
0+
0*
0)
0(
0'
0&
0%
#160000
0!
0"
06
07
0B
0C
1@!
1D
0F
#170000
1!
1"
16
17
1B
1C
0@!
0D
1F
1w
1!!
1s
1~
1r
0(!
0;!
0)!
0<!
04!
0G
1H
0J
1N
1P
1Y
1]
1`
1c
1g
1j
1k
1Q
1U
00!
01!
05!
0*!
0+!
0,!
0-!
0.!
0/!
0=!
0Q
1T
1W
1Z
1^
1a
1d
1h
1M
1S
11!
0U
1X
1@
1A
1:
1;
1<
1=
1>
1?
18
0M
10!
09
0Y
1\
1,
1+
1*
1)
1(
1'
1&
1%
1#
0A
0S
1/!
0$
0]
1_
0,
0@
0W
1.!
0`
1b
0+
0?
0Z
1-!
0c
1f
0*
0>
0^
1,!
0g
1i
0)
0=
0a
1+!
0j
0(
0<
0d
1*!
0'
0;
0h
0&
0:
0%
#180000
0!
0"
06
07
0B
0C
1@!
1D
0F
#190000
1!
1"
16
17
1B
1C
0@!
0D
1F
0w
1v
0!!
0s
0r
1(!
1)!
1<!
03!
14!
1G
0L
1U
0X
00!
1Y
0\
1S
0/!
1]
0_
1@
1W
0.!
1`
0b
1+
1?
1Z
0-!
1c
0f
1*
1>
1^
0,!
1g
0i
1)
1=
1a
0+!
1j
1(
1<
1d
0*!
1'
1;
1h
1&
1:
1%
#200000
0!
0"
06
07
0B
0C
1@!
1D
0F
#210000
1!
1"
16
17
1B
1C
0@!
0D
1F
1w
1r
1q
1p
1o
1n
1m
1l
0"!
0#!
0$!
0%!
0&!
0'!
0(!
04!
0G
0H
1I
0U
1X
0Y
1\
0]
1_
0`
1b
0c
1f
0g
1i
0j
1*!
1+!
1,!
1-!
1.!
1/!
10!
1j
1g
1c
1`
1]
1Y
0S
0W
0Z
0^
0a
0d
0h
0/!
0.!
0-!
0,!
0+!
0*!
0:
0;
0<
0=
0>
0?
0@
1h
1d
1a
1^
1Z
1W
0+
0*
0)
0(
0'
0&
0%
1?
1>
1=
1<
1;
1:
1*
1)
1(
1'
1&
1%
#220000
0!
0"
06
07
0B
0C
1@!
1D
0F
#230000
1!
1"
16
17
1B
1C
0@!
0D
1F
0w
0v
1u
0r
1(!
02!
13!
14!
1G
0P
1Q
0T
0Y
0]
0`
0c
0g
0j
0k
1J
1L
1V
15!
1*!
1+!
1,!
1-!
1.!
1/!
01!
1U
0X
0Q
1M
0W
0Z
0^
0a
0d
0h
11!
00!
1Y
0\
0:
0;
0<
0=
0>
0?
1A
1S
0M
0/!
19
1]
0_
1,
0*
0)
0(
0'
0&
0%
0A
1@
1W
0.!
1$
1`
0b
0,
1+
1?
1Z
0-!
1c
0f
1*
1>
1^
0,!
1g
0i
1)
1=
1a
0+!
1j
1(
1<
1d
0*!
1'
1;
1h
1&
1:
1%
#240000
0!
0"
06
07
0B
0C
1@!
1D
0F
#250000
1!
1"
16
17
1B
1C
0@!
0D
1F
1w
1!!
1r
1}
0:!
0(!
0<!
04!
0G
1H
0J
0L
0N
0O
1P
0]
1_
0`
1b
0c
1f
1e
0g
1i
0j
1k
05!
1*!
1+!
1,!
1-!
1.!
1=!
1j
1g
1c
1`
1Q
0Z
0^
0a
0d
0h
01!
0-!
0,!
0+!
0*!
0:
0;
0<
0=
0>
08
1h
1d
1a
1^
1M
09
0)
0(
0'
0&
0%
0#
1A
1=
1<
1;
1:
0$
1,
1(
1'
1&
1%
#260000
0!
0"
06
07
0B
0C
1@!
1D
0F
#270000
1!
1"
16
17
1B
1C
0@!
0D
1F
0w
1v
03!
14!
1G
1J
#280000
0!
0"
06
07
0B
0C
1@!
1D
0F
#290000
1!
1"
16
17
1B
1C
0@!
0D
1F
1w
04!
0G
0H
0I
0J
1K
0V
0e
0>!
0!!
0~
0r
0}
0q
0p
0o
0n
0m
0l
1"!
1#!
1$!
1%!
1&!
1'!
1:!
1(!
1;!
1<!
0Q
1T
1]
0_
0`
0c
0g
0j
1*!
1+!
1,!
1-!
0.!
11!
1`
0b
0U
1X
0M
1Z
0^
0a
0d
0h
10!
0-!
0Y
1\
1c
0f
0:
0;
0<
0=
1>
0A
1^
0S
0,!
1/!
1g
0i
0]
1_
0,
1)
0(
0'
0&
0%
0@
1=
0W
1a
1.!
0+!
0`
1b
1j
0+
1(
1<
0?
1d
0Z
0*!
1-!
0c
1f
0*
1'
0>
1;
0^
1h
1,!
0g
1i
0)
1&
1:
0=
0a
1+!
0j
0(
1%
0<
0d
1*!
0'
0;
0h
0&
0:
0%
#300000
0!
0"
06
07
0B
0C
1@!
1D
0F
#310000
1!
1"
16
17
1B
1C
0@!
0D
1F
0w
0v
0u
12!
13!
14!
1G
0P
1Q
0T
1U
0X
1Y
0\
1]
0_
1`
0b
1c
0f
1g
0i
1j
0k
1J
0K
1L
1O
1>!
15!
0*!
0+!
0,!
0-!
0.!
0/!
00!
01!
0j
0g
0c
0`
0]
0Y
0U
0Q
1M
1S
1W
1Z
1^
1a
1d
1h
11!
10!
1/!
1.!
1-!
1,!
1+!
1*!
1:
1;
1<
1=
1>
1?
1@
1A
0h
0d
0a
0^
0Z
0W
0S
0M
19
1,
1+
1*
1)
1(
1'
1&
1%
0A
0@
0?
0>
0=
0<
0;
0:
1$
0,
0+
0*
0)
0(
0'
0&
0%
#320000
0!
0"
06
07
0B
0C
1@!
1D
0F
#330000
1!
1"
16
17
1B
1C
0@!
0D
1F
1w
1!!
1s
1~
1r
0(!
0;!
0)!
0<!
04!
0G
1H
0J
1N
1P
1Y
1]
1`
1c
1g
1j
1k
1Q
1U
00!
01!
05!
0*!
0+!
0,!
0-!
0.!
0/!
0=!
0Q
1T
1W
1Z
1^
1a
1d
1h
1M
1S
11!
0U
1X
1@
1A
1:
1;
1<
1=
1>
1?
18
0M
10!
09
0Y
1\
1,
1+
1*
1)
1(
1'
1&
1%
1#
0A
0S
1/!
0$
0]
1_
0,
0@
0W
1.!
0`
1b
0+
0?
0Z
1-!
0c
1f
0*
0>
0^
1,!
0g
1i
0)
0=
0a
1+!
0j
0(
0<
0d
1*!
0'
0;
0h
0&
0:
0%
#340000
0!
0"
06
07
0B
0C
1@!
1D
0F
#350000
1!
1"
16
17
1B
1C
0@!
0D
1F
0w
1v
0!!
0s
0r
1(!
1)!
1<!
03!
14!
1G
0L
1U
0X
00!
1Y
0\
1S
0/!
1]
0_
1@
1W
0.!
1`
0b
1+
1?
1Z
0-!
1c
0f
1*
1>
1^
0,!
1g
0i
1)
1=
1a
0+!
1j
1(
1<
1d
0*!
1'
1;
1h
1&
1:
1%
#360000
0!
0"
06
07
0B
0C
1@!
1D
0F
#370000
1!
1"
16
17
1B
1C
0@!
0D
1F
1w
1r
1q
1p
1o
1n
1m
1l
0"!
0#!
0$!
0%!
0&!
0'!
0(!
04!
0G
0H
1I
0U
1X
0Y
1\
0]
1_
0`
1b
0c
1f
0g
1i
0j
1*!
1+!
1,!
1-!
1.!
1/!
10!
1j
1g
1c
1`
1]
1Y
0S
0W
0Z
0^
0a
0d
0h
0/!
0.!
0-!
0,!
0+!
0*!
0:
0;
0<
0=
0>
0?
0@
1h
1d
1a
1^
1Z
1W
0+
0*
0)
0(
0'
0&
0%
1?
1>
1=
1<
1;
1:
1*
1)
1(
1'
1&
1%
#380000
0!
0"
06
07
0B
0C
1@!
1D
0F
#390000
1!
1"
16
17
1B
1C
0@!
0D
1F
0w
0v
1u
0r
1(!
02!
13!
14!
1G
0P
1Q
0T
0Y
0]
0`
0c
0g
0j
0k
1J
1L
1V
15!
1*!
1+!
1,!
1-!
1.!
1/!
01!
1U
0X
0Q
1M
0W
0Z
0^
0a
0d
0h
11!
00!
1Y
0\
0:
0;
0<
0=
0>
0?
1A
1S
0M
0/!
19
1]
0_
1,
0*
0)
0(
0'
0&
0%
0A
1@
1W
0.!
1$
1`
0b
0,
1+
1?
1Z
0-!
1c
0f
1*
1>
1^
0,!
1g
0i
1)
1=
1a
0+!
1j
1(
1<
1d
0*!
1'
1;
1h
1&
1:
1%
#400000
0!
0"
06
07
0B
0C
1@!
1D
0F
#410000
1!
1"
16
17
1B
1C
0@!
0D
1F
1w
1!!
1r
1}
0:!
0(!
0<!
04!
0G
1H
0J
0L
0N
0O
1P
0]
1_
0`
1b
0c
1f
1e
0g
1i
0j
1k
05!
1*!
1+!
1,!
1-!
1.!
1=!
1j
1g
1c
1`
1Q
0Z
0^
0a
0d
0h
01!
0-!
0,!
0+!
0*!
0:
0;
0<
0=
0>
08
1h
1d
1a
1^
1M
09
0)
0(
0'
0&
0%
0#
1A
1=
1<
1;
1:
0$
1,
1(
1'
1&
1%
#420000
0!
0"
06
07
0B
0C
1@!
1D
0F
#430000
1!
1"
16
17
1B
1C
0@!
0D
1F
0w
1v
03!
14!
1G
1J
#440000
0!
0"
06
07
0B
0C
1@!
1D
0F
#450000
1!
1"
16
17
1B
1C
0@!
0D
1F
1w
04!
0G
0H
0I
0J
1K
0V
0e
0>!
0!!
0~
0r
0}
0q
0p
0o
0n
0m
0l
1"!
1#!
1$!
1%!
1&!
1'!
1:!
1(!
1;!
1<!
0Q
1T
1]
0_
0`
0c
0g
0j
1*!
1+!
1,!
1-!
0.!
11!
1`
0b
0U
1X
0M
1Z
0^
0a
0d
0h
10!
0-!
0Y
1\
1c
0f
0:
0;
0<
0=
1>
0A
1^
0S
0,!
1/!
1g
0i
0]
1_
0,
1)
0(
0'
0&
0%
0@
1=
0W
1a
1.!
0+!
0`
1b
1j
0+
1(
1<
0?
1d
0Z
0*!
1-!
0c
1f
0*
1'
0>
1;
0^
1h
1,!
0g
1i
0)
1&
1:
0=
0a
1+!
0j
0(
1%
0<
0d
1*!
0'
0;
0h
0&
0:
0%
#460000
0!
0"
06
07
0B
0C
1@!
1D
0F
#470000
1!
1"
16
17
1B
1C
0@!
0D
1F
0w
0v
0u
12!
13!
14!
1G
0P
1Q
0T
1U
0X
1Y
0\
1]
0_
1`
0b
1c
0f
1g
0i
1j
0k
1J
0K
1L
1O
1>!
15!
0*!
0+!
0,!
0-!
0.!
0/!
00!
01!
0j
0g
0c
0`
0]
0Y
0U
0Q
1M
1S
1W
1Z
1^
1a
1d
1h
11!
10!
1/!
1.!
1-!
1,!
1+!
1*!
1:
1;
1<
1=
1>
1?
1@
1A
0h
0d
0a
0^
0Z
0W
0S
0M
19
1,
1+
1*
1)
1(
1'
1&
1%
0A
0@
0?
0>
0=
0<
0;
0:
1$
0,
0+
0*
0)
0(
0'
0&
0%
#480000
0!
0"
06
07
0B
0C
1@!
1D
0F
#490000
1!
1"
16
17
1B
1C
0@!
0D
1F
1w
1!!
1s
1~
1r
0(!
0;!
0)!
0<!
04!
0G
1H
0J
1N
1P
1Y
1]
1`
1c
1g
1j
1k
1Q
1U
00!
01!
05!
0*!
0+!
0,!
0-!
0.!
0/!
0=!
0Q
1T
1W
1Z
1^
1a
1d
1h
1M
1S
11!
0U
1X
1@
1A
1:
1;
1<
1=
1>
1?
18
0M
10!
09
0Y
1\
1,
1+
1*
1)
1(
1'
1&
1%
1#
0A
0S
1/!
0$
0]
1_
0,
0@
0W
1.!
0`
1b
0+
0?
0Z
1-!
0c
1f
0*
0>
0^
1,!
0g
1i
0)
0=
0a
1+!
0j
0(
0<
0d
1*!
0'
0;
0h
0&
0:
0%
#500000
0!
0"
06
07
0B
0C
1@!
1D
0F
#510000
1!
1"
16
17
1B
1C
0@!
0D
1F
0w
1v
0!!
0s
0r
1(!
1)!
1<!
03!
14!
1G
0L
1U
0X
00!
1Y
0\
1S
0/!
1]
0_
1@
1W
0.!
1`
0b
1+
1?
1Z
0-!
1c
0f
1*
1>
1^
0,!
1g
0i
1)
1=
1a
0+!
1j
1(
1<
1d
0*!
1'
1;
1h
1&
1:
1%
#520000
0!
0"
06
07
0B
0C
1@!
1D
0F
#530000
1!
1"
16
17
1B
1C
0@!
0D
1F
1w
1r
1q
1p
1o
1n
1m
1l
0"!
0#!
0$!
0%!
0&!
0'!
0(!
04!
0G
0H
1I
0U
1X
0Y
1\
0]
1_
0`
1b
0c
1f
0g
1i
0j
1*!
1+!
1,!
1-!
1.!
1/!
10!
1j
1g
1c
1`
1]
1Y
0S
0W
0Z
0^
0a
0d
0h
0/!
0.!
0-!
0,!
0+!
0*!
0:
0;
0<
0=
0>
0?
0@
1h
1d
1a
1^
1Z
1W
0+
0*
0)
0(
0'
0&
0%
1?
1>
1=
1<
1;
1:
1*
1)
1(
1'
1&
1%
#540000
0!
0"
06
07
0B
0C
1@!
1D
0F
#550000
1!
1"
16
17
1B
1C
0@!
0D
1F
0w
0v
1u
0r
1(!
02!
13!
14!
1G
0P
1Q
0T
0Y
0]
0`
0c
0g
0j
0k
1J
1L
1V
15!
1*!
1+!
1,!
1-!
1.!
1/!
01!
1U
0X
0Q
1M
0W
0Z
0^
0a
0d
0h
11!
00!
1Y
0\
0:
0;
0<
0=
0>
0?
1A
1S
0M
0/!
19
1]
0_
1,
0*
0)
0(
0'
0&
0%
0A
1@
1W
0.!
1$
1`
0b
0,
1+
1?
1Z
0-!
1c
0f
1*
1>
1^
0,!
1g
0i
1)
1=
1a
0+!
1j
1(
1<
1d
0*!
1'
1;
1h
1&
1:
1%
#560000
0!
0"
06
07
0B
0C
1@!
1D
0F
#570000
1!
1"
16
17
1B
1C
0@!
0D
1F
1w
1!!
1r
1}
0:!
0(!
0<!
04!
0G
1H
0J
0L
0N
0O
1P
0]
1_
0`
1b
0c
1f
1e
0g
1i
0j
1k
05!
1*!
1+!
1,!
1-!
1.!
1=!
1j
1g
1c
1`
1Q
0Z
0^
0a
0d
0h
01!
0-!
0,!
0+!
0*!
0:
0;
0<
0=
0>
08
1h
1d
1a
1^
1M
09
0)
0(
0'
0&
0%
0#
1A
1=
1<
1;
1:
0$
1,
1(
1'
1&
1%
#580000
0!
0"
06
07
0B
0C
1@!
1D
0F
#590000
1!
1"
16
17
1B
1C
0@!
0D
1F
0w
1v
03!
14!
1G
1J
#600000
0!
0"
06
07
0B
0C
1@!
1D
0F
#610000
1!
1"
16
17
1B
1C
0@!
0D
1F
1w
04!
0G
0H
0I
0J
1K
0V
0e
0>!
0!!
0~
0r
0}
0q
0p
0o
0n
0m
0l
1"!
1#!
1$!
1%!
1&!
1'!
1:!
1(!
1;!
1<!
0Q
1T
1]
0_
0`
0c
0g
0j
1*!
1+!
1,!
1-!
0.!
11!
1`
0b
0U
1X
0M
1Z
0^
0a
0d
0h
10!
0-!
0Y
1\
1c
0f
0:
0;
0<
0=
1>
0A
1^
0S
0,!
1/!
1g
0i
0]
1_
0,
1)
0(
0'
0&
0%
0@
1=
0W
1a
1.!
0+!
0`
1b
1j
0+
1(
1<
0?
1d
0Z
0*!
1-!
0c
1f
0*
1'
0>
1;
0^
1h
1,!
0g
1i
0)
1&
1:
0=
0a
1+!
0j
0(
1%
0<
0d
1*!
0'
0;
0h
0&
0:
0%
#620000
0!
0"
06
07
0B
0C
1@!
1D
0F
#630000
1!
1"
16
17
1B
1C
0@!
0D
1F
0w
0v
0u
12!
13!
14!
1G
0P
1Q
0T
1U
0X
1Y
0\
1]
0_
1`
0b
1c
0f
1g
0i
1j
0k
1J
0K
1L
1O
1>!
15!
0*!
0+!
0,!
0-!
0.!
0/!
00!
01!
0j
0g
0c
0`
0]
0Y
0U
0Q
1M
1S
1W
1Z
1^
1a
1d
1h
11!
10!
1/!
1.!
1-!
1,!
1+!
1*!
1:
1;
1<
1=
1>
1?
1@
1A
0h
0d
0a
0^
0Z
0W
0S
0M
19
1,
1+
1*
1)
1(
1'
1&
1%
0A
0@
0?
0>
0=
0<
0;
0:
1$
0,
0+
0*
0)
0(
0'
0&
0%
#640000
0!
0"
06
07
0B
0C
1@!
1D
0F
#650000
1!
1"
16
17
1B
1C
0@!
0D
1F
1w
1!!
1s
1~
1r
0(!
0;!
0)!
0<!
04!
0G
1H
0J
1N
1P
1Y
1]
1`
1c
1g
1j
1k
1Q
1U
00!
01!
05!
0*!
0+!
0,!
0-!
0.!
0/!
0=!
0Q
1T
1W
1Z
1^
1a
1d
1h
1M
1S
11!
0U
1X
1@
1A
1:
1;
1<
1=
1>
1?
18
0M
10!
09
0Y
1\
1,
1+
1*
1)
1(
1'
1&
1%
1#
0A
0S
1/!
0$
0]
1_
0,
0@
0W
1.!
0`
1b
0+
0?
0Z
1-!
0c
1f
0*
0>
0^
1,!
0g
1i
0)
0=
0a
1+!
0j
0(
0<
0d
1*!
0'
0;
0h
0&
0:
0%
#660000
0!
0"
06
07
0B
0C
1@!
1D
0F
